%YAML 1.1
%TAG !u! tag:unity3d.com,2011:
--- !u!221 &22100000
AnimatorOverrideController:
  m_ObjectHideFlags: 0
  m_PrefabParentObject: {fileID: 0}
  m_PrefabInternal: {fileID: 0}
  m_Name: ClownAnimatorOverrideController
  m_Controller: {fileID: 9100000, guid: be817e8d727d0164ca1d04c7502d09ef, type: 2}
  m_Clips:
  - m_OriginalClip: {fileID: 7400000, guid: be66986effd141b4992d2d78be127139, type: 3}
    m_OverrideClip: {fileID: 7400000, guid: 7985cdaa35ef74a67ba40a39b1216f64, type: 3}
  - m_OriginalClip: {fileID: 7400002, guid: be66986effd141b4992d2d78be127139, type: 3}
    m_OverrideClip: {fileID: 7400002, guid: 7985cdaa35ef74a67ba40a39b1216f64, type: 3}
  - m_OriginalClip: {fileID: 7400004, guid: be66986effd141b4992d2d78be127139, type: 3}
    m_OverrideClip: {fileID: 7400004, guid: 7985cdaa35ef74a67ba40a39b1216f64, type: 3}
